RLE/control.vcd
$date
	Mon Oct 02 15:43:16 2017
$end
$version
	Icarus Verilog
$end
$timescale
	1s
$end
$scope module control_tb $end
$var wire 1 ! reset $end
$var wire 1 " inc $end
$var reg 1 # clock $end
$var reg 32 $ inA [31:0] $end
$var reg 32 % inB [31:0] $end
$var reg 1 & overflow $end
$scope module controlA $end
$var wire 1 ' buffout $end
$var wire 1 # clock $end
$var wire 32 ( inA [31:0] $end
$var wire 32 ) inB [31:0] $end
$var wire 1 & overflow $end
$var wire 32 * xor_out [31:0] $end
$var wire 1 + and_out $end
$var reg 1 " inc $end
$var reg 1 ! reset $end
$scope module andg1 $end
$var wire 32 , in [31:0] $end
$var reg 1 + out $end
$scope begin AND32 $end
$upscope $end
$upscope $end
$scope module xg1 $end
$var wire 32 - in1 [31:0] $end
$var wire 32 . in2 [31:0] $end
$var reg 32 / out [31:0] $end
$scope begin XORGATE $end
$upscope $end
$upscope $end
$scope begin CONTROL $end
$upscope $end
$upscope $end
$upscope $end
$enddefinitions $end
#0
$dumpvars
b0 /
b0 .
b0 -
b11111111111111111111111111111111 ,
1+
b0 *
b0 )
b0 (
1'
0&
b0 %
b0 $
1#
0"
1!
$end
#1
0!
0'
0#
#2
1!
1'
1#
#3
0!
0'
0#
#4
1!
1'
1#
#5
0+
b0 ,
b11111111111111111111111111111111 *
b11111111111111111111111111111111 /
0!
0'
0#
b11111111111111111111111111111111 $
b11111111111111111111111111111111 (
b11111111111111111111111111111111 -
#6
1"
1'
1#
#7
0"
0'
0#
#8
1"
1'
1#
#9
0"
0'
0#
#10
1"
1'
1#
#11
0"
0'
0#
#12
1"
1'
1#
#13
0"
0'
0#
#14
1"
1'
1#
#15
b10101010101010101010101010101010 ,
b1010101010101010101010101010101 *
b1010101010101010101010101010101 /
0"
0'
0#
b10101010101010101010101010101010 %
b10101010101010101010101010101010 )
b10101010101010101010101010101010 .
#16
1"
1'
1#
#17
0"
0'
0#
#18
1"
1'
1#
#19
0"
0'
0#
#20
1"
1'
1#
#21
0"
0'
0#
#22
1"
1'
1#
#23
0"
0'
0#
#24
1"
1'
1#
#25
0"
0'
0#
#26
1"
1'
1#
#27
0"
0'
0#
#28
1"
1'
1#
#29
0"
0'
0#
#30
1!
1+
b11111111111111111111111111111111 ,
b0 *
b0 /
0"
1'
1#
b10101010101010101010101010101010 $
b10101010101010101010101010101010 (
b10101010101010101010101010101010 -
#31
0!
0'
0#
#32
1!
1'
1#
#33
0!
0'
0#
#34
1!
1'
1#
#35
0!
0'
0#
#36
1!
1'
1#
#37
0!
0'
0#
#38
1!
1'
1#
#39
0!
0'
0#
#40
1!
1'
1#
#41
0!
0'
0#
#42
1!
1'
1#
#43
0!
0'
0#
#44
1!
1'
1#
#45
0!
0'
0#
#46
1!
1'
1#
#47
0!
0'
0#
#48
1!
1'
1#
#49
0!
0'
0#
#50
1"
0+
b1010101010101010101010101010101 ,
b10101010101010101010101010101010 *
b10101010101010101010101010101010 /
0!
1'
1#
b0 %
b0 )
b0 .
#51
0"
0'
0#
#52
1"
1'
1#
#53
0"
0'
0#
#54
1"
1'
1#
#55
0"
0'
0#
#56
1"
1'
1#
#57
0"
0'
0#
#58
1"
1'
1#
#59
0"
0'
0#
#60
1"
1'
1#
#61
0"
0'
0#
#62
1"
1'
1#
#63
0"
0'
0#
#64
1"
1'
1#
#65
0"
0'
0#
#66
1"
1'
1#
#67
0"
0'
0#
#68
1"
1'
1#
#69
0"
0'
0#
#70
1"
1'
1#
#71
0"
0'
0#
#72
1"
1'
1#
#73
0"
0'
0#
#74
1"
1'
1#
#75
1+
b11111111111111111111111111111111 ,
b0 *
b0 /
0"
0'
0#
b0 $
b0 (
b0 -
#76
1!
1'
1#
#77
0!
0'
0#
#78
1!
1'
1#
#79
0!
0'
0#
#80
1!
1'
1#
#81
0!
0'
0#
#82
1!
1'
1#
#83
0!
0'
0#
#84
1!
1'
1#
#85
0!
0'
0#
#86
1!
1'
1#
#87
0!
0'
0#
#88
1!
1'
1#
#89
0!
0'
0#
#90
1!
1'
1#
#91
0!
0'
0#
#92
1!
1'
1#
#93
0!
0'
0#
#94
1!
1'
1#
#95
0+
b1011111010111110101111101011111 ,
b10100000101000001010000010100000 *
b10100000101000001010000010100000 /
0!
0'
0#
b10100000101000001010000010100000 %
b10100000101000001010000010100000 )
b10100000101000001010000010100000 .
#96
1"
1'
1#
#97
0"
0'
0#
#98
1"
1'
1#
#99
0"
0'
0#
#100
1"
1'
1#
#101
0"
0'
0#
#102
1"
1'
1#
#103
0"
0'
0#
#104
1"
1'
1#
#105
0"
0'
0!
0#
1&
#106
1!
1"
1'
1#
#107
0!
0"
0'
0#
#108
1!
1"
1'
1#
#109
0!
0"
0'
0#
#110
1!
1"
1'
1#
#111
0!
0"
0'
0#
#112
1!
1"
1'
1#
#113
0!
0"
0'
0#
#114
1!
1"
1'
1#
#115
0!
0"
0'
0#
#116
1!
1"
1'
1#
#117
0!
0"
0'
0#
#118
1!
1"
1'
1#
#119
0!
0"
0'
0#
#120
1!
1"
1'
1#
#121
0!
0"
0'
0#
#122
1!
1"
1'
1#
#123
0!
0"
0'
0#
#124
1!
1"
1'
1#
#125
0!
0"
0'
0#
#126
1!
1"
1'
1#
#127
0!
0"
0'
0#
#128
1!
1"
1'
1#
#129
0!
0"
0'
0#
#130
1!
1"
1'
1#
#131
0!
0"
0'
0#
#132
1!
1"
1'
1#
#133
0!
0"
0'
0#
#134
1!
1"
1'
1#
#135
0!
0"
0'
0#
#136
1!
1"
1'
1#
#137
0!
0"
0'
0#
#138
1!
1"
1'
1#
#139
0!
0"
0'
0#
#140
1!
1"
1'
1#
#141
0!
0"
0'
0#
#142
1!
1"
1'
1#
#143
0!
0"
0'
0#
#144
1!
1"
1'
1#
#145
0!
0"
0'
0#
#146
1!
1"
1'
1#
#147
0!
0"
0'
0#
#148
1!
1"
1'
1#
#149
0!
0"
0'
0#
#150
1!
1"
1'
1#
#151
0!
0"
0'
0#
#152
1!
1"
1'
1#
#153
0!
0"
0'
0#
#154
1!
1"
1'
1#
#155
0!
0"
0'
0#
