RLE/rle.vcd
$date
	Sat Oct 07 16:04:28 2017
$end
$version
	Icarus Verilog
$end
$timescale
	1s
$end
$scope module rle2_tb $end
$var wire 32 ! outdata [31:0] $end
$var reg 1 " clock $end
$var reg 32 # datain [31:0] $end
$var reg 1 $ sysres $end
$scope module U_rle2 $end
$var wire 1 " clock $end
$var wire 32 % indata [31:0] $end
$var wire 1 & selector $end
$var wire 1 $ sysres $end
$var wire 1 ' reset $end
$var wire 1 ( overflow $end
$var wire 32 ) outdata [31:0] $end
$var wire 32 * muxout [31:0] $end
$var wire 1 + inc $end
$var wire 8 , count [7:0] $end
$var wire 32 - buff1 [31:0] $end
$var wire 32 . buff0 [31:0] $end
$scope module cb0 $end
$var wire 1 " clock $end
$var wire 32 / data [31:0] $end
$var wire 1 $ reset $end
$var wire 32 0 out [31:0] $end
$scope module ff[0] $end
$var wire 1 " clock $end
$var wire 1 1 data $end
$var wire 1 $ reset $end
$var reg 1 2 q $end
$scope begin FLIPFLOP $end
$upscope $end
$upscope $end
$scope module ff[1] $end
$var wire 1 " clock $end
$var wire 1 3 data $end
$var wire 1 $ reset $end
$var reg 1 4 q $end
$scope begin FLIPFLOP $end
$upscope $end
$upscope $end
$scope module ff[2] $end
$var wire 1 " clock $end
$var wire 1 5 data $end
$var wire 1 $ reset $end
$var reg 1 6 q $end
$scope begin FLIPFLOP $end
$upscope $end
$upscope $end
$scope module ff[3] $end
$var wire 1 " clock $end
$var wire 1 7 data $end
$var wire 1 $ reset $end
$var reg 1 8 q $end
$scope begin FLIPFLOP $end
$upscope $end
$upscope $end
$scope module ff[4] $end
$var wire 1 " clock $end
$var wire 1 9 data $end
$var wire 1 $ reset $end
$var reg 1 : q $end
$scope begin FLIPFLOP $end
$upscope $end
$upscope $end
$scope module ff[5] $end
$var wire 1 " clock $end
$var wire 1 ; data $end
$var wire 1 $ reset $end
$var reg 1 < q $end
$scope begin FLIPFLOP $end
$upscope $end
$upscope $end
$scope module ff[6] $end
$var wire 1 " clock $end
$var wire 1 = data $end
$var wire 1 $ reset $end
$var reg 1 > q $end
$scope begin FLIPFLOP $end
$upscope $end
$upscope $end
$scope module ff[7] $end
$var wire 1 " clock $end
$var wire 1 ? data $end
$var wire 1 $ reset $end
$var reg 1 @ q $end
$scope begin FLIPFLOP $end
$upscope $end
$upscope $end
$scope module ff[8] $end
$var wire 1 " clock $end
$var wire 1 A data $end
$var wire 1 $ reset $end
$var reg 1 B q $end
$scope begin FLIPFLOP $end
$upscope $end
$upscope $end
$scope module ff[9] $end
$var wire 1 " clock $end
$var wire 1 C data $end
$var wire 1 $ reset $end
$var reg 1 D q $end
$scope begin FLIPFLOP $end
$upscope $end
$upscope $end
$scope module ff[10] $end
$var wire 1 " clock $end
$var wire 1 E data $end
$var wire 1 $ reset $end
$var reg 1 F q $end
$scope begin FLIPFLOP $end
$upscope $end
$upscope $end
$scope module ff[11] $end
$var wire 1 " clock $end
$var wire 1 G data $end
$var wire 1 $ reset $end
$var reg 1 H q $end
$scope begin FLIPFLOP $end
$upscope $end
$upscope $end
$scope module ff[12] $end
$var wire 1 " clock $end
$var wire 1 I data $end
$var wire 1 $ reset $end
$var reg 1 J q $end
$scope begin FLIPFLOP $end
$upscope $end
$upscope $end
$scope module ff[13] $end
$var wire 1 " clock $end
$var wire 1 K data $end
$var wire 1 $ reset $end
$var reg 1 L q $end
$scope begin FLIPFLOP $end
$upscope $end
$upscope $end
$scope module ff[14] $end
$var wire 1 " clock $end
$var wire 1 M data $end
$var wire 1 $ reset $end
$var reg 1 N q $end
$scope begin FLIPFLOP $end
$upscope $end
$upscope $end
$scope module ff[15] $end
$var wire 1 " clock $end
$var wire 1 O data $end
$var wire 1 $ reset $end
$var reg 1 P q $end
$scope begin FLIPFLOP $end
$upscope $end
$upscope $end
$scope module ff[16] $end
$var wire 1 " clock $end
$var wire 1 Q data $end
$var wire 1 $ reset $end
$var reg 1 R q $end
$scope begin FLIPFLOP $end
$upscope $end
$upscope $end
$scope module ff[17] $end
$var wire 1 " clock $end
$var wire 1 S data $end
$var wire 1 $ reset $end
$var reg 1 T q $end
$scope begin FLIPFLOP $end
$upscope $end
$upscope $end
$scope module ff[18] $end
$var wire 1 " clock $end
$var wire 1 U data $end
$var wire 1 $ reset $end
$var reg 1 V q $end
$scope begin FLIPFLOP $end
$upscope $end
$upscope $end
$scope module ff[19] $end
$var wire 1 " clock $end
$var wire 1 W data $end
$var wire 1 $ reset $end
$var reg 1 X q $end
$scope begin FLIPFLOP $end
$upscope $end
$upscope $end
$scope module ff[20] $end
$var wire 1 " clock $end
$var wire 1 Y data $end
$var wire 1 $ reset $end
$var reg 1 Z q $end
$scope begin FLIPFLOP $end
$upscope $end
$upscope $end
$scope module ff[21] $end
$var wire 1 " clock $end
$var wire 1 [ data $end
$var wire 1 $ reset $end
$var reg 1 \ q $end
$scope begin FLIPFLOP $end
$upscope $end
$upscope $end
$scope module ff[22] $end
$var wire 1 " clock $end
$var wire 1 ] data $end
$var wire 1 $ reset $end
$var reg 1 ^ q $end
$scope begin FLIPFLOP $end
$upscope $end
$upscope $end
$scope module ff[23] $end
$var wire 1 " clock $end
$var wire 1 _ data $end
$var wire 1 $ reset $end
$var reg 1 ` q $end
$scope begin FLIPFLOP $end
$upscope $end
$upscope $end
$scope module ff[24] $end
$var wire 1 " clock $end
$var wire 1 a data $end
$var wire 1 $ reset $end
$var reg 1 b q $end
$scope begin FLIPFLOP $end
$upscope $end
$upscope $end
$scope module ff[25] $end
$var wire 1 " clock $end
$var wire 1 c data $end
$var wire 1 $ reset $end
$var reg 1 d q $end
$scope begin FLIPFLOP $end
$upscope $end
$upscope $end
$scope module ff[26] $end
$var wire 1 " clock $end
$var wire 1 e data $end
$var wire 1 $ reset $end
$var reg 1 f q $end
$scope begin FLIPFLOP $end
$upscope $end
$upscope $end
$scope module ff[27] $end
$var wire 1 " clock $end
$var wire 1 g data $end
$var wire 1 $ reset $end
$var reg 1 h q $end
$scope begin FLIPFLOP $end
$upscope $end
$upscope $end
$scope module ff[28] $end
$var wire 1 " clock $end
$var wire 1 i data $end
$var wire 1 $ reset $end
$var reg 1 j q $end
$scope begin FLIPFLOP $end
$upscope $end
$upscope $end
$scope module ff[29] $end
$var wire 1 " clock $end
$var wire 1 k data $end
$var wire 1 $ reset $end
$var reg 1 l q $end
$scope begin FLIPFLOP $end
$upscope $end
$upscope $end
$scope module ff[30] $end
$var wire 1 " clock $end
$var wire 1 m data $end
$var wire 1 $ reset $end
$var reg 1 n q $end
$scope begin FLIPFLOP $end
$upscope $end
$upscope $end
$scope module ff[31] $end
$var wire 1 " clock $end
$var wire 1 o data $end
$var wire 1 $ reset $end
$var reg 1 p q $end
$scope begin FLIPFLOP $end
$upscope $end
$upscope $end
$upscope $end
$scope module cb1 $end
$var wire 1 " clock $end
$var wire 32 q data [31:0] $end
$var wire 1 $ reset $end
$var wire 32 r out [31:0] $end
$scope module ff[0] $end
$var wire 1 " clock $end
$var wire 1 s data $end
$var wire 1 $ reset $end
$var reg 1 t q $end
$scope begin FLIPFLOP $end
$upscope $end
$upscope $end
$scope module ff[1] $end
$var wire 1 " clock $end
$var wire 1 u data $end
$var wire 1 $ reset $end
$var reg 1 v q $end
$scope begin FLIPFLOP $end
$upscope $end
$upscope $end
$scope module ff[2] $end
$var wire 1 " clock $end
$var wire 1 w data $end
$var wire 1 $ reset $end
$var reg 1 x q $end
$scope begin FLIPFLOP $end
$upscope $end
$upscope $end
$scope module ff[3] $end
$var wire 1 " clock $end
$var wire 1 y data $end
$var wire 1 $ reset $end
$var reg 1 z q $end
$scope begin FLIPFLOP $end
$upscope $end
$upscope $end
$scope module ff[4] $end
$var wire 1 " clock $end
$var wire 1 { data $end
$var wire 1 $ reset $end
$var reg 1 | q $end
$scope begin FLIPFLOP $end
$upscope $end
$upscope $end
$scope module ff[5] $end
$var wire 1 " clock $end
$var wire 1 } data $end
$var wire 1 $ reset $end
$var reg 1 ~ q $end
$scope begin FLIPFLOP $end
$upscope $end
$upscope $end
$scope module ff[6] $end
$var wire 1 " clock $end
$var wire 1 !" data $end
$var wire 1 $ reset $end
$var reg 1 "" q $end
$scope begin FLIPFLOP $end
$upscope $end
$upscope $end
$scope module ff[7] $end
$var wire 1 " clock $end
$var wire 1 #" data $end
$var wire 1 $ reset $end
$var reg 1 $" q $end
$scope begin FLIPFLOP $end
$upscope $end
$upscope $end
$scope module ff[8] $end
$var wire 1 " clock $end
$var wire 1 %" data $end
$var wire 1 $ reset $end
$var reg 1 &" q $end
$scope begin FLIPFLOP $end
$upscope $end
$upscope $end
$scope module ff[9] $end
$var wire 1 " clock $end
$var wire 1 '" data $end
$var wire 1 $ reset $end
$var reg 1 (" q $end
$scope begin FLIPFLOP $end
$upscope $end
$upscope $end
$scope module ff[10] $end
$var wire 1 " clock $end
$var wire 1 )" data $end
$var wire 1 $ reset $end
$var reg 1 *" q $end
$scope begin FLIPFLOP $end
$upscope $end
$upscope $end
$scope module ff[11] $end
$var wire 1 " clock $end
$var wire 1 +" data $end
$var wire 1 $ reset $end
$var reg 1 ," q $end
$scope begin FLIPFLOP $end
$upscope $end
$upscope $end
$scope module ff[12] $end
$var wire 1 " clock $end
$var wire 1 -" data $end
$var wire 1 $ reset $end
$var reg 1 ." q $end
$scope begin FLIPFLOP $end
$upscope $end
$upscope $end
$scope module ff[13] $end
$var wire 1 " clock $end
$var wire 1 /" data $end
$var wire 1 $ reset $end
$var reg 1 0" q $end
$scope begin FLIPFLOP $end
$upscope $end
$upscope $end
$scope module ff[14] $end
$var wire 1 " clock $end
$var wire 1 1" data $end
$var wire 1 $ reset $end
$var reg 1 2" q $end
$scope begin FLIPFLOP $end
$upscope $end
$upscope $end
$scope module ff[15] $end
$var wire 1 " clock $end
$var wire 1 3" data $end
$var wire 1 $ reset $end
$var reg 1 4" q $end
$scope begin FLIPFLOP $end
$upscope $end
$upscope $end
$scope module ff[16] $end
$var wire 1 " clock $end
$var wire 1 5" data $end
$var wire 1 $ reset $end
$var reg 1 6" q $end
$scope begin FLIPFLOP $end
$upscope $end
$upscope $end
$scope module ff[17] $end
$var wire 1 " clock $end
$var wire 1 7" data $end
$var wire 1 $ reset $end
$var reg 1 8" q $end
$scope begin FLIPFLOP $end
$upscope $end
$upscope $end
$scope module ff[18] $end
$var wire 1 " clock $end
$var wire 1 9" data $end
$var wire 1 $ reset $end
$var reg 1 :" q $end
$scope begin FLIPFLOP $end
$upscope $end
$upscope $end
$scope module ff[19] $end
$var wire 1 " clock $end
$var wire 1 ;" data $end
$var wire 1 $ reset $end
$var reg 1 <" q $end
$scope begin FLIPFLOP $end
$upscope $end
$upscope $end
$scope module ff[20] $end
$var wire 1 " clock $end
$var wire 1 =" data $end
$var wire 1 $ reset $end
$var reg 1 >" q $end
$scope begin FLIPFLOP $end
$upscope $end
$upscope $end
$scope module ff[21] $end
$var wire 1 " clock $end
$var wire 1 ?" data $end
$var wire 1 $ reset $end
$var reg 1 @" q $end
$scope begin FLIPFLOP $end
$upscope $end
$upscope $end
$scope module ff[22] $end
$var wire 1 " clock $end
$var wire 1 A" data $end
$var wire 1 $ reset $end
$var reg 1 B" q $end
$scope begin FLIPFLOP $end
$upscope $end
$upscope $end
$scope module ff[23] $end
$var wire 1 " clock $end
$var wire 1 C" data $end
$var wire 1 $ reset $end
$var reg 1 D" q $end
$scope begin FLIPFLOP $end
$upscope $end
$upscope $end
$scope module ff[24] $end
$var wire 1 " clock $end
$var wire 1 E" data $end
$var wire 1 $ reset $end
$var reg 1 F" q $end
$scope begin FLIPFLOP $end
$upscope $end
$upscope $end
$scope module ff[25] $end
$var wire 1 " clock $end
$var wire 1 G" data $end
$var wire 1 $ reset $end
$var reg 1 H" q $end
$scope begin FLIPFLOP $end
$upscope $end
$upscope $end
$scope module ff[26] $end
$var wire 1 " clock $end
$var wire 1 I" data $end
$var wire 1 $ reset $end
$var reg 1 J" q $end
$scope begin FLIPFLOP $end
$upscope $end
$upscope $end
$scope module ff[27] $end
$var wire 1 " clock $end
$var wire 1 K" data $end
$var wire 1 $ reset $end
$var reg 1 L" q $end
$scope begin FLIPFLOP $end
$upscope $end
$upscope $end
$scope module ff[28] $end
$var wire 1 " clock $end
$var wire 1 M" data $end
$var wire 1 $ reset $end
$var reg 1 N" q $end
$scope begin FLIPFLOP $end
$upscope $end
$upscope $end
$scope module ff[29] $end
$var wire 1 " clock $end
$var wire 1 O" data $end
$var wire 1 $ reset $end
$var reg 1 P" q $end
$scope begin FLIPFLOP $end
$upscope $end
$upscope $end
$scope module ff[30] $end
$var wire 1 " clock $end
$var wire 1 Q" data $end
$var wire 1 $ reset $end
$var reg 1 R" q $end
$scope begin FLIPFLOP $end
$upscope $end
$upscope $end
$scope module ff[31] $end
$var wire 1 " clock $end
$var wire 1 S" data $end
$var wire 1 $ reset $end
$var reg 1 T" q $end
$scope begin FLIPFLOP $end
$upscope $end
$upscope $end
$upscope $end
$scope module cb2 $end
$var wire 1 " clock $end
$var wire 1 $ reset $end
$var wire 32 U" out [31:0] $end
$var wire 32 V" data [31:0] $end
$scope module ff[0] $end
$var wire 1 " clock $end
$var wire 1 W" data $end
$var wire 1 $ reset $end
$var reg 1 X" q $end
$scope begin FLIPFLOP $end
$upscope $end
$upscope $end
$scope module ff[1] $end
$var wire 1 " clock $end
$var wire 1 Y" data $end
$var wire 1 $ reset $end
$var reg 1 Z" q $end
$scope begin FLIPFLOP $end
$upscope $end
$upscope $end
$scope module ff[2] $end
$var wire 1 " clock $end
$var wire 1 [" data $end
$var wire 1 $ reset $end
$var reg 1 \" q $end
$scope begin FLIPFLOP $end
$upscope $end
$upscope $end
$scope module ff[3] $end
$var wire 1 " clock $end
$var wire 1 ]" data $end
$var wire 1 $ reset $end
$var reg 1 ^" q $end
$scope begin FLIPFLOP $end
$upscope $end
$upscope $end
$scope module ff[4] $end
$var wire 1 " clock $end
$var wire 1 _" data $end
$var wire 1 $ reset $end
$var reg 1 `" q $end
$scope begin FLIPFLOP $end
$upscope $end
$upscope $end
$scope module ff[5] $end
$var wire 1 " clock $end
$var wire 1 a" data $end
$var wire 1 $ reset $end
$var reg 1 b" q $end
$scope begin FLIPFLOP $end
$upscope $end
$upscope $end
$scope module ff[6] $end
$var wire 1 " clock $end
$var wire 1 c" data $end
$var wire 1 $ reset $end
$var reg 1 d" q $end
$scope begin FLIPFLOP $end
$upscope $end
$upscope $end
$scope module ff[7] $end
$var wire 1 " clock $end
$var wire 1 e" data $end
$var wire 1 $ reset $end
$var reg 1 f" q $end
$scope begin FLIPFLOP $end
$upscope $end
$upscope $end
$scope module ff[8] $end
$var wire 1 " clock $end
$var wire 1 g" data $end
$var wire 1 $ reset $end
$var reg 1 h" q $end
$scope begin FLIPFLOP $end
$upscope $end
$upscope $end
$scope module ff[9] $end
$var wire 1 " clock $end
$var wire 1 i" data $end
$var wire 1 $ reset $end
$var reg 1 j" q $end
$scope begin FLIPFLOP $end
$upscope $end
$upscope $end
$scope module ff[10] $end
$var wire 1 " clock $end
$var wire 1 k" data $end
$var wire 1 $ reset $end
$var reg 1 l" q $end
$scope begin FLIPFLOP $end
$upscope $end
$upscope $end
$scope module ff[11] $end
$var wire 1 " clock $end
$var wire 1 m" data $end
$var wire 1 $ reset $end
$var reg 1 n" q $end
$scope begin FLIPFLOP $end
$upscope $end
$upscope $end
$scope module ff[12] $end
$var wire 1 " clock $end
$var wire 1 o" data $end
$var wire 1 $ reset $end
$var reg 1 p" q $end
$scope begin FLIPFLOP $end
$upscope $end
$upscope $end
$scope module ff[13] $end
$var wire 1 " clock $end
$var wire 1 q" data $end
$var wire 1 $ reset $end
$var reg 1 r" q $end
$scope begin FLIPFLOP $end
$upscope $end
$upscope $end
$scope module ff[14] $end
$var wire 1 " clock $end
$var wire 1 s" data $end
$var wire 1 $ reset $end
$var reg 1 t" q $end
$scope begin FLIPFLOP $end
$upscope $end
$upscope $end
$scope module ff[15] $end
$var wire 1 " clock $end
$var wire 1 u" data $end
$var wire 1 $ reset $end
$var reg 1 v" q $end
$scope begin FLIPFLOP $end
$upscope $end
$upscope $end
$scope module ff[16] $end
$var wire 1 " clock $end
$var wire 1 w" data $end
$var wire 1 $ reset $end
$var reg 1 x" q $end
$scope begin FLIPFLOP $end
$upscope $end
$upscope $end
$scope module ff[17] $end
$var wire 1 " clock $end
$var wire 1 y" data $end
$var wire 1 $ reset $end
$var reg 1 z" q $end
$scope begin FLIPFLOP $end
$upscope $end
$upscope $end
$scope module ff[18] $end
$var wire 1 " clock $end
$var wire 1 {" data $end
$var wire 1 $ reset $end
$var reg 1 |" q $end
$scope begin FLIPFLOP $end
$upscope $end
$upscope $end
$scope module ff[19] $end
$var wire 1 " clock $end
$var wire 1 }" data $end
$var wire 1 $ reset $end
$var reg 1 ~" q $end
$scope begin FLIPFLOP $end
$upscope $end
$upscope $end
$scope module ff[20] $end
$var wire 1 " clock $end
$var wire 1 !# data $end
$var wire 1 $ reset $end
$var reg 1 "# q $end
$scope begin FLIPFLOP $end
$upscope $end
$upscope $end
$scope module ff[21] $end
$var wire 1 " clock $end
$var wire 1 ## data $end
$var wire 1 $ reset $end
$var reg 1 $# q $end
$scope begin FLIPFLOP $end
$upscope $end
$upscope $end
$scope module ff[22] $end
$var wire 1 " clock $end
$var wire 1 %# data $end
$var wire 1 $ reset $end
$var reg 1 &# q $end
$scope begin FLIPFLOP $end
$upscope $end
$upscope $end
$scope module ff[23] $end
$var wire 1 " clock $end
$var wire 1 '# data $end
$var wire 1 $ reset $end
$var reg 1 (# q $end
$scope begin FLIPFLOP $end
$upscope $end
$upscope $end
$scope module ff[24] $end
$var wire 1 " clock $end
$var wire 1 )# data $end
$var wire 1 $ reset $end
$var reg 1 *# q $end
$scope begin FLIPFLOP $end
$upscope $end
$upscope $end
$scope module ff[25] $end
$var wire 1 " clock $end
$var wire 1 +# data $end
$var wire 1 $ reset $end
$var reg 1 ,# q $end
$scope begin FLIPFLOP $end
$upscope $end
$upscope $end
$scope module ff[26] $end
$var wire 1 " clock $end
$var wire 1 -# data $end
$var wire 1 $ reset $end
$var reg 1 .# q $end
$scope begin FLIPFLOP $end
$upscope $end
$upscope $end
$scope module ff[27] $end
$var wire 1 " clock $end
$var wire 1 /# data $end
$var wire 1 $ reset $end
$var reg 1 0# q $end
$scope begin FLIPFLOP $end
$upscope $end
$upscope $end
$scope module ff[28] $end
$var wire 1 " clock $end
$var wire 1 1# data $end
$var wire 1 $ reset $end
$var reg 1 2# q $end
$scope begin FLIPFLOP $end
$upscope $end
$upscope $end
$scope module ff[29] $end
$var wire 1 " clock $end
$var wire 1 3# data $end
$var wire 1 $ reset $end
$var reg 1 4# q $end
$scope begin FLIPFLOP $end
$upscope $end
$upscope $end
$scope module ff[30] $end
$var wire 1 " clock $end
$var wire 1 5# data $end
$var wire 1 $ reset $end
$var reg 1 6# q $end
$scope begin FLIPFLOP $end
$upscope $end
$upscope $end
$scope module ff[31] $end
$var wire 1 " clock $end
$var wire 1 7# data $end
$var wire 1 $ reset $end
$var reg 1 8# q $end
$scope begin FLIPFLOP $end
$upscope $end
$upscope $end
$upscope $end
$scope module ctr $end
$var wire 1 9# buffout $end
$var wire 1 " clock $end
$var wire 32 :# inA [31:0] $end
$var wire 32 ;# inB [31:0] $end
$var wire 1 $ sysres $end
$var wire 32 <# xor_out [31:0] $end
$var wire 1 ( overflow $end
$var wire 1 =# and_out $end
$var reg 1 + inc $end
$var reg 1 ' reset $end
$scope module andg1 $end
$var wire 32 ># in [31:0] $end
$var reg 1 =# out $end
$scope begin AND32 $end
$upscope $end
$upscope $end
$scope module xg1 $end
$var wire 32 ?# in1 [31:0] $end
$var wire 32 @# in2 [31:0] $end
$var reg 32 A# out [31:0] $end
$scope begin XORGATE $end
$upscope $end
$upscope $end
$scope begin CONTROL $end
$upscope $end
$upscope $end
$scope module mux $end
$var wire 32 B# data [31:0] $end
$var wire 1 & selector $end
$var wire 8 C# count [7:0] $end
$var reg 32 D# muxout [31:0] $end
$scope begin SELMUX $end
$upscope $end
$upscope $end
$scope module upcount $end
$var wire 1 + clock $end
$var wire 1 ' reset $end
$var wire 8 E# ncount [7:0] $end
$var wire 8 F# count [7:0] $end
$var reg 1 ( overflow $end
$var reg 8 G# toggle [7:0] $end
$scope module tff0 $end
$var wire 1 + clock $end
$var wire 1 ' reset $end
$var wire 1 H# toggle $end
$var reg 1 I# not_q $end
$var reg 1 J# q $end
$scope begin FLIPFLOP $end
$upscope $end
$upscope $end
$scope module tff1 $end
$var wire 1 + clock $end
$var wire 1 ' reset $end
$var wire 1 K# toggle $end
$var reg 1 L# not_q $end
$var reg 1 M# q $end
$scope begin FLIPFLOP $end
$upscope $end
$upscope $end
$scope module tff2 $end
$var wire 1 + clock $end
$var wire 1 ' reset $end
$var wire 1 N# toggle $end
$var reg 1 O# not_q $end
$var reg 1 P# q $end
$scope begin FLIPFLOP $end
$upscope $end
$upscope $end
$scope module tff3 $end
$var wire 1 + clock $end
$var wire 1 ' reset $end
$var wire 1 Q# toggle $end
$var reg 1 R# not_q $end
$var reg 1 S# q $end
$scope begin FLIPFLOP $end
$upscope $end
$upscope $end
$scope module tff4 $end
$var wire 1 + clock $end
$var wire 1 ' reset $end
$var wire 1 T# toggle $end
$var reg 1 U# not_q $end
$var reg 1 V# q $end
$scope begin FLIPFLOP $end
$upscope $end
$upscope $end
$scope module tff5 $end
$var wire 1 + clock $end
$var wire 1 ' reset $end
$var wire 1 W# toggle $end
$var reg 1 X# not_q $end
$var reg 1 Y# q $end
$scope begin FLIPFLOP $end
$upscope $end
$upscope $end
$scope module tff6 $end
$var wire 1 + clock $end
$var wire 1 ' reset $end
$var wire 1 Z# toggle $end
$var reg 1 [# not_q $end
$var reg 1 \# q $end
$scope begin FLIPFLOP $end
$upscope $end
$upscope $end
$scope module tff7 $end
$var wire 1 + clock $end
$var wire 1 ' reset $end
$var wire 1 ]# toggle $end
$var reg 1 ^# not_q $end
$var reg 1 _# q $end
$scope begin FLIPFLOP $end
$upscope $end
$upscope $end
$scope begin BICOUNTER $end
$upscope $end
$upscope $end
$upscope $end
$upscope $end
$enddefinitions $end
#0
$dumpvars
x_#
x^#
x]#
x\#
x[#
xZ#
xY#
xX#
xW#
xV#
xU#
xT#
xS#
xR#
xQ#
xP#
xO#
xN#
xM#
xL#
xK#
xJ#
xI#
xH#
bx G#
bx F#
bx E#
bx D#
bx C#
bx B#
bx A#
bx @#
bx ?#
bx >#
x=#
bx <#
bx ;#
bx :#
19#
x8#
x7#
x6#
x5#
x4#
x3#
x2#
x1#
x0#
x/#
x.#
x-#
x,#
x+#
x*#
x)#
x(#
x'#
x&#
x%#
x$#
x##
x"#
x!#
x~"
x}"
x|"
x{"
xz"
xy"
xx"
xw"
xv"
xu"
xt"
xs"
xr"
xq"
xp"
xo"
xn"
xm"
xl"
xk"
xj"
xi"
xh"
xg"
xf"
xe"
xd"
xc"
xb"
xa"
x`"
x_"
x^"
x]"
x\"
x["
xZ"
xY"
xX"
xW"
bx V"
bx U"
xT"
xS"
xR"
xQ"
xP"
xO"
xN"
xM"
xL"
xK"
xJ"
xI"
xH"
xG"
xF"
xE"
xD"
xC"
xB"
xA"
x@"
x?"
x>"
x="
x<"
x;"
x:"
x9"
x8"
x7"
x6"
x5"
x4"
x3"
x2"
x1"
x0"
x/"
x."
x-"
x,"
x+"
x*"
x)"
x("
x'"
x&"
x%"
x$"
x#"
x""
x!"
x~
x}
x|
x{
xz
xy
xx
xw
xv
xu
xt
xs
bx r
bx q
xp
0o
xn
0m
xl
0k
xj
0i
xh
0g
xf
0e
xd
0c
xb
0a
x`
0_
x^
0]
x\
0[
xZ
0Y
xX
0W
xV
0U
xT
0S
xR
0Q
xP
0O
xN
0M
xL
0K
xJ
0I
xH
0G
xF
0E
xD
0C
xB
0A
x@
0?
x>
0=
x<
0;
x:
09
x8
07
x6
05
x4
03
x2
01
bx 0
b0 /
bx .
bx -
bx ,
x+
bx *
bx )
x(
x'
z&
b0 %
0$
b0 #
1"
bx !
$end
#1
0+
09#
0"
#2
0S"
0Q"
0O"
0M"
0K"
0I"
0G"
0E"
0C"
0A"
0?"
0="
0;"
09"
07"
05"
03"
01"
0/"
0-"
0+"
0)"
0'"
0%"
0#"
0!"
0}
0{
0y
0w
0u
0s
0p
0n
0l
0j
0h
0f
0d
0b
0`
0^
0\
0Z
0X
0V
0T
0R
0P
0N
0L
0J
0H
0F
0D
0B
0@
0>
0<
0:
08
06
04
b0 .
b0 0
b0 q
b0 :#
b0 ?#
02
x+
19#
1"
#3
0+
09#
0"
#4
1=#
b11111111111111111111111111111111 >#
b0 <#
b0 A#
0T"
0R"
0P"
0N"
0L"
0J"
0H"
0F"
0D"
0B"
0@"
0>"
0<"
0:"
08"
06"
04"
02"
00"
0."
0,"
0*"
0("
0&"
0$"
0""
0~
0|
0z
0x
0v
b0 -
b0 r
b0 ;#
b0 @#
b0 B#
0t
1+
19#
1"
#5
1H#
1K#
0N#
0Q#
0T#
0W#
0Z#
0]#
0(
b11 G#
1^#
0_#
1[#
0\#
1X#
0Y#
1U#
0V#
1R#
0S#
1O#
0P#
1L#
0M#
b1 ,
b1 C#
b1 F#
1I#
b11111110 E#
0J#
09#
1'
0+
0"
1$
#6
08#
06#
04#
02#
00#
0.#
0,#
0*#
0(#
0&#
0$#
0"#
0~"
0|"
0z"
0x"
0v"
0t"
0r"
0p"
0n"
0l"
0j"
0h"
0f"
0d"
0b"
0`"
0^"
0\"
0Z"
b0 !
b0 )
b0 U"
0X"
19#
1"
#7
09#
0"
#8
19#
1"
#9
09#
0"
#10
19#
1"
#11
09#
0"
#12
19#
1"
#13
09#
0"
#14
19#
1"
#15
0K#
b1 G#
1M#
0L#
b11111101 E#
1J#
b10 ,
b10 C#
b10 F#
0I#
09#
0'
0+
0"
0$
#16
x8#
x6#
x4#
x2#
x0#
x.#
x,#
x*#
x(#
x&#
x$#
x"#
x~"
x|"
xz"
xx"
xv"
xt"
xr"
xp"
xn"
xl"
xj"
xh"
xf"
xd"
xb"
x`"
x^"
x\"
xZ"
bx !
bx )
bx U"
xX"
1N#
1K#
b111 G#
b11111100 E#
0J#
b11 ,
b11 C#
b11 F#
1I#
1+
19#
1"
#17
0+
09#
11
13
15
17
1;
1=
1?
1C
1E
1G
1I
1K
1O
1Q
1U
1W
1[
1_
1c
1e
1g
1i
1m
1o
0"
b11011110101011011011111011101111 #
b11011110101011011011111011101111 %
b11011110101011011011111011101111 /
#18
1'
0=#
b100001010100100100000100010000 >#
b11011110101011011011111011101111 <#
b11011110101011011011111011101111 A#
1S"
1Q"
1M"
1K"
1I"
1G"
1C"
1?"
1;"
19"
15"
13"
1/"
1-"
1+"
1)"
1'"
1#"
1!"
1}
1y
1w
1u
1s
1p
1n
1j
1h
1f
1d
1`
1\
1X
1V
1R
1P
1L
1J
1H
1F
1D
1@
1>
1<
18
16
14
b11011110101011011011111011101111 .
b11011110101011011011111011101111 0
b11011110101011011011111011101111 q
b11011110101011011011111011101111 :#
b11011110101011011011111011101111 ?#
12
0N#
1K#
b11 G#
0P#
1O#
0M#
1L#
b11111110 E#
0J#
b1 ,
b1 C#
b1 F#
1I#
0+
19#
1"
#19
0'
09#
0"
#20
0K#
b1 G#
1M#
0L#
b11111101 E#
1J#
b10 ,
b10 C#
b10 F#
0I#
1+
1=#
b11111111111111111111111111111111 >#
b0 <#
b0 A#
1T"
1R"
1N"
1L"
1J"
1H"
1D"
1@"
1<"
1:"
16"
14"
10"
1."
1,"
1*"
1("
1$"
1""
1~
1z
1x
1v
b11011110101011011011111011101111 -
b11011110101011011011111011101111 r
b11011110101011011011111011101111 ;#
b11011110101011011011111011101111 @#
b11011110101011011011111011101111 B#
1t
0'
19#
1"
#21
0+
09#
0"
#22
1N#
1K#
b111 G#
b11111100 E#
0J#
b11 ,
b11 C#
b11 F#
1I#
1+
19#
1"
#23
0+
09#
0"
#24
0N#
0K#
b1 G#
1P#
0O#
0M#
1L#
b11111011 E#
1J#
b100 ,
b100 C#
b100 F#
0I#
1+
19#
1"
#25
0+
09#
0"
#26
1K#
b11 G#
b11111010 E#
0J#
b101 ,
b101 C#
b101 F#
1I#
1+
19#
1"
#27
0+
09#
19
1A
1M
1S
1Y
1]
1a
1k
0"
b11111111111111111111111111111111 #
b11111111111111111111111111111111 %
b11111111111111111111111111111111 /
#28
1O#
0P#
1'
0=#
b11011110101011011011111011101111 >#
b100001010100100100000100010000 <#
b100001010100100100000100010000 A#
1O"
1E"
1A"
1="
17"
11"
1%"
1{
1l
1b
1^
1Z
1T
1N
1B
b11111111111111111111111111111111 .
b11111111111111111111111111111111 0
b11111111111111111111111111111111 q
b11111111111111111111111111111111 :#
b11111111111111111111111111111111 ?#
1:
1K#
b11 G#
0M#
1L#
b11111110 E#
0J#
b1 ,
b1 C#
b1 F#
1I#
0+
19#
1"
#29
0'
09#
0"
#30
0K#
b1 G#
1M#
0L#
b11111101 E#
1J#
b10 ,
b10 C#
b10 F#
0I#
1+
1=#
b11111111111111111111111111111111 >#
b0 <#
b0 A#
1P"
1F"
1B"
1>"
18"
12"
1&"
b11111111111111111111111111111111 -
b11111111111111111111111111111111 r
b11111111111111111111111111111111 ;#
b11111111111111111111111111111111 @#
b11111111111111111111111111111111 B#
1|
0'
19#
1"
#31
0+
09#
0"
#32
1N#
1K#
b111 G#
b11111100 E#
0J#
b11 ,
b11 C#
b11 F#
1I#
1+
19#
1"
#33
0+
09#
01
03
05
07
09
0;
0=
0?
0A
0C
0E
0G
0I
0K
0M
0O
0Q
0S
0U
0W
0Y
0[
0]
0_
0a
0c
0e
0g
0i
0k
0m
0o
0"
b0 #
b0 %
b0 /
